CPU/simulation/qsim/CPU.msim.vcd
$comment
	File created using the following command:
		vcd file CPU.msim.vcd -direction
$end
$date
	Tue Oct 31 15:01:17 2023
$end
$version
	ModelSim Version 10.5b
$end
$timescale
	1ps
$end

$scope module CPU_vlg_vec_tst $end
$var reg 1 ! CLK $end
$var reg 1 " CLK50 $end
$var reg 1 # resetMaster $end
$var wire 1 $ Contador0 $end
$var wire 1 % Contador1 $end
$var wire 1 & Contador2 $end
$var wire 1 ' Contador3 $end
$var wire 1 ( Contador4 $end
$var wire 1 ) Contador5 $end
$var wire 1 * Contador6 $end
$var wire 1 + Contador7 $end
$var wire 1 , Reg01 [0] $end
$var wire 1 - Reg01 [1] $end
$var wire 1 . Reg01 [2] $end
$var wire 1 / Reg01 [3] $end
$var wire 1 0 Reg10 [0] $end
$var wire 1 1 Reg10 [1] $end
$var wire 1 2 Reg10 [2] $end
$var wire 1 3 Reg10 [3] $end
$var wire 1 4 ROMout [0] $end
$var wire 1 5 ROMout [1] $end
$var wire 1 6 ROMout [2] $end
$var wire 1 7 ROMout [3] $end
$var wire 1 8 ROMout [4] $end
$var wire 1 9 ROMout [5] $end
$var wire 1 : ROMout [6] $end
$var wire 1 ; ROMout [7] $end
$var wire 1 < ROMout [8] $end
$var wire 1 = ROMout [9] $end
$var wire 1 > ROMout [10] $end
$var wire 1 ? ROMout [11] $end
$var wire 1 @ ROMout [12] $end
$var wire 1 A ROMout [13] $end
$var wire 1 B ROMout [14] $end
$var wire 1 C ROMout [15] $end

$scope module i1 $end
$var wire 1 D gnd $end
$var wire 1 E vcc $end
$var wire 1 F unknown $end
$var tri1 1 G devclrn $end
$var tri1 1 H devpor $end
$var tri1 1 I devoe $end
$var wire 1 J CLK50~input_o $end
$var wire 1 K Contador0~output_o $end
$var wire 1 L Contador1~output_o $end
$var wire 1 M Contador2~output_o $end
$var wire 1 N Contador3~output_o $end
$var wire 1 O Contador4~output_o $end
$var wire 1 P Contador5~output_o $end
$var wire 1 Q Contador6~output_o $end
$var wire 1 R Contador7~output_o $end
$var wire 1 S Reg01[0]~output_o $end
$var wire 1 T Reg01[1]~output_o $end
$var wire 1 U Reg01[2]~output_o $end
$var wire 1 V Reg01[3]~output_o $end
$var wire 1 W Reg10[0]~output_o $end
$var wire 1 X Reg10[1]~output_o $end
$var wire 1 Y Reg10[2]~output_o $end
$var wire 1 Z Reg10[3]~output_o $end
$var wire 1 [ ROMout[0]~output_o $end
$var wire 1 \ ROMout[1]~output_o $end
$var wire 1 ] ROMout[2]~output_o $end
$var wire 1 ^ ROMout[3]~output_o $end
$var wire 1 _ ROMout[4]~output_o $end
$var wire 1 ` ROMout[5]~output_o $end
$var wire 1 a ROMout[6]~output_o $end
$var wire 1 b ROMout[7]~output_o $end
$var wire 1 c ROMout[8]~output_o $end
$var wire 1 d ROMout[9]~output_o $end
$var wire 1 e ROMout[10]~output_o $end
$var wire 1 f ROMout[11]~output_o $end
$var wire 1 g ROMout[12]~output_o $end
$var wire 1 h ROMout[13]~output_o $end
$var wire 1 i ROMout[14]~output_o $end
$var wire 1 j ROMout[15]~output_o $end
$var wire 1 k CLK~input_o $end
$var wire 1 l resetMaster~input_o $end
$var wire 1 m inst13|inst2~combout $end
$var wire 1 n inst13|inst8~0_combout $end
$var wire 1 o inst13|inst28~0_combout $end
$var wire 1 p inst13|inst8~q $end
$var wire 1 q inst13|inst5~combout $end
$var wire 1 r inst13|agh~0_combout $end
$var wire 1 s inst13|agh~q $end
$var wire 1 t inst13|inst10~0_combout $end
$var wire 1 u inst13|inst10~q $end
$var wire 1 v inst13|asd~0_combout $end
$var wire 1 w inst13|asd~q $end
$var wire 1 x inst13|inst27~combout $end
$var wire 1 y inst13|inst24~combout $end
$var wire 1 z inst13|inst7~1_combout $end
$var wire 1 { inst13|inst7~3_combout $end
$var wire 1 | inst13|inst7~0_combout $end
$var wire 1 } inst13|inst7~_emulated_q $end
$var wire 1 ~ inst13|inst7~2_combout $end
$var wire 1 !! inst13|inst23~combout $end
$var wire 1 "! inst13|inst20~combout $end
$var wire 1 #! inst13|inst6~1_combout $end
$var wire 1 $! inst13|inst6~3_combout $end
$var wire 1 %! inst13|inst6~0_combout $end
$var wire 1 &! inst13|inst6~_emulated_q $end
$var wire 1 '! inst13|inst6~2_combout $end
$var wire 1 (! inst13|inst16~combout $end
$var wire 1 )! inst13|inst19~combout $end
$var wire 1 *! inst13|inst1~1_combout $end
$var wire 1 +! inst13|inst1~3_combout $end
$var wire 1 ,! inst13|inst1~0_combout $end
$var wire 1 -! inst13|inst1~_emulated_q $end
$var wire 1 .! inst13|inst1~2_combout $end
$var wire 1 /! inst13|inst15~combout $end
$var wire 1 0! inst13|inst12~combout $end
$var wire 1 1! inst13|inst~1_combout $end
$var wire 1 2! inst13|inst~3_combout $end
$var wire 1 3! inst13|inst~0_combout $end
$var wire 1 4! inst13|inst~_emulated_q $end
$var wire 1 5! inst13|inst~2_combout $end
$var wire 1 6! inst4|inst17~0_combout $end
$var wire 1 7! inst4|inst~q $end
$var wire 1 8! inst25|inst39~combout $end
$var wire 1 9! inst25|inst6|inst3|inst1~0_combout $end
$var wire 1 :! inst3|inst17~0_combout $end
$var wire 1 ;! inst3|inst11~q $end
$var wire 1 <! inst25|inst34~combout $end
$var wire 1 =! inst25|inst40~1_combout $end
$var wire 1 >! inst25|inst40~0_combout $end
$var wire 1 ?! inst25|inst40~2_combout $end
$var wire 1 @! inst4|inst15~q $end
$var wire 1 A! inst3|inst15~q $end
$var wire 1 B! inst25|inst30~combout $end
$var wire 1 C! inst25|inst42~2_combout $end
$var wire 1 D! inst25|inst42~3_combout $end
$var wire 1 E! inst25|inst42~4_combout $end
$var wire 1 F! inst25|inst42~5_combout $end
$var wire 1 G! inst4|inst13~q $end
$var wire 1 H! inst3|inst13~q $end
$var wire 1 I! inst25|inst33~combout $end
$var wire 1 J! inst25|inst6|inst1|inst7~0_combout $end
$var wire 1 K! inst25|inst6|inst2|inst1~combout $end
$var wire 1 L! inst25|inSAst|inst1|inst7~0_combout $end
$var wire 1 M! inst25|inSAst|inst1|inst7~1_combout $end
$var wire 1 N! inst25|inst|$00000|auto_generated|result_node[2]~0_combout $end
$var wire 1 O! inst25|inst|$00000|auto_generated|result_node[2]~1_combout $end
$var wire 1 P! inst25|inst|$00000|auto_generated|result_node[2]~2_combout $end
$var wire 1 Q! inst25|inst44~2_combout $end
$var wire 1 R! inst4|inst11~q $end
$var wire 1 S! inst25|inst35~combout $end
$var wire 1 T! inst25|inst6|inst2|inst7~0_combout $end
$var wire 1 U! inst25|inSAst|inst2|inst7~0_combout $end
$var wire 1 V! inst25|inst46~0_combout $end
$var wire 1 W! inst25|inst46~1_combout $end
$var wire 1 X! inst25|inst46~2_combout $end
$var wire 1 Y! inst3|inst~q $end
$var wire 1 Z! DFAFBG|inst|altsyncram_component|auto_generated|q_a [15] $end
$var wire 1 [! DFAFBG|inst|altsyncram_component|auto_generated|q_a [14] $end
$var wire 1 \! DFAFBG|inst|altsyncram_component|auto_generated|q_a [13] $end
$var wire 1 ]! DFAFBG|inst|altsyncram_component|auto_generated|q_a [12] $end
$var wire 1 ^! DFAFBG|inst|altsyncram_component|auto_generated|q_a [11] $end
$var wire 1 _! DFAFBG|inst|altsyncram_component|auto_generated|q_a [10] $end
$var wire 1 `! DFAFBG|inst|altsyncram_component|auto_generated|q_a [9] $end
$var wire 1 a! DFAFBG|inst|altsyncram_component|auto_generated|q_a [8] $end
$var wire 1 b! DFAFBG|inst|altsyncram_component|auto_generated|q_a [7] $end
$var wire 1 c! DFAFBG|inst|altsyncram_component|auto_generated|q_a [6] $end
$var wire 1 d! DFAFBG|inst|altsyncram_component|auto_generated|q_a [5] $end
$var wire 1 e! DFAFBG|inst|altsyncram_component|auto_generated|q_a [4] $end
$var wire 1 f! DFAFBG|inst|altsyncram_component|auto_generated|q_a [3] $end
$var wire 1 g! DFAFBG|inst|altsyncram_component|auto_generated|q_a [2] $end
$var wire 1 h! DFAFBG|inst|altsyncram_component|auto_generated|q_a [1] $end
$var wire 1 i! DFAFBG|inst|altsyncram_component|auto_generated|q_a [0] $end
$var wire 1 j! DFAFBG|inst|altsyncram_component|auto_generated|ram_block1a0_PORTADATAOUT_bus [17] $end
$var wire 1 k! DFAFBG|inst|altsyncram_component|auto_generated|ram_block1a0_PORTADATAOUT_bus [16] $end
$var wire 1 l! DFAFBG|inst|altsyncram_component|auto_generated|ram_block1a0_PORTADATAOUT_bus [15] $end
$var wire 1 m! DFAFBG|inst|altsyncram_component|auto_generated|ram_block1a0_PORTADATAOUT_bus [14] $end
$var wire 1 n! DFAFBG|inst|altsyncram_component|auto_generated|ram_block1a0_PORTADATAOUT_bus [13] $end
$var wire 1 o! DFAFBG|inst|altsyncram_component|auto_generated|ram_block1a0_PORTADATAOUT_bus [12] $end
$var wire 1 p! DFAFBG|inst|altsyncram_component|auto_generated|ram_block1a0_PORTADATAOUT_bus [11] $end
$var wire 1 q! DFAFBG|inst|altsyncram_component|auto_generated|ram_block1a0_PORTADATAOUT_bus [10] $end
$var wire 1 r! DFAFBG|inst|altsyncram_component|auto_generated|ram_block1a0_PORTADATAOUT_bus [9] $end
$var wire 1 s! DFAFBG|inst|altsyncram_component|auto_generated|ram_block1a0_PORTADATAOUT_bus [8] $end
$var wire 1 t! DFAFBG|inst|altsyncram_component|auto_generated|ram_block1a0_PORTADATAOUT_bus [7] $end
$var wire 1 u! DFAFBG|inst|altsyncram_component|auto_generated|ram_block1a0_PORTADATAOUT_bus [6] $end
$var wire 1 v! DFAFBG|inst|altsyncram_component|auto_generated|ram_block1a0_PORTADATAOUT_bus [5] $end
$var wire 1 w! DFAFBG|inst|altsyncram_component|auto_generated|ram_block1a0_PORTADATAOUT_bus [4] $end
$var wire 1 x! DFAFBG|inst|altsyncram_component|auto_generated|ram_block1a0_PORTADATAOUT_bus [3] $end
$var wire 1 y! DFAFBG|inst|altsyncram_component|auto_generated|ram_block1a0_PORTADATAOUT_bus [2] $end
$var wire 1 z! DFAFBG|inst|altsyncram_component|auto_generated|ram_block1a0_PORTADATAOUT_bus [1] $end
$var wire 1 {! DFAFBG|inst|altsyncram_component|auto_generated|ram_block1a0_PORTADATAOUT_bus [0] $end
$upscope $end
$upscope $end
$enddefinitions $end
#0
$dumpvars
0!
x"
1#
0$
0%
0&
0'
0(
0)
0*
0+
0/
0.
0-
0,
03
02
01
00
0C
0B
0A
0@
0?
0>
0=
0<
0;
0:
09
08
07
06
05
04
0D
1E
xF
1G
1H
1I
xJ
0K
0L
0M
0N
0O
0P
0Q
0R
0S
0T
0U
0V
0W
0X
0Y
0Z
0[
0\
0]
0^
0_
0`
0a
0b
0c
0d
0e
0f
0g
0h
0i
0j
0k
1l
0m
0n
1o
0p
0q
0r
0s
0t
0u
0v
0w
0x
1y
0z
0{
1|
0}
0~
0!!
1"!
0#!
0$!
1%!
0&!
0'!
1(!
0)!
0*!
0+!
1,!
0-!
0.!
0/!
10!
01!
12!
13!
04!
05!
06!
07!
08!
09!
0:!
0;!
0<!
0=!
0>!
0?!
0@!
0A!
0B!
0C!
0D!
0E!
0F!
0G!
0H!
0I!
0J!
0K!
0L!
0M!
0N!
0O!
0P!
0Q!
0R!
0S!
0T!
0U!
0V!
0W!
0X!
0Y!
0i!
0h!
0g!
0f!
0e!
0d!
0c!
0b!
0a!
0`!
0_!
0^!
0]!
0\!
0[!
0Z!
0{!
0z!
0y!
0x!
0w!
0v!
0u!
0t!
0s!
0r!
0q!
0p!
0o!
0n!
0m!
0l!
0k!
0j!
$end
#25000
1!
1k
#25001
1{!
1y!
1n!
1m!
1i!
1g!
1\!
1[!
1\
1]
1h
1j
1J!
1>!
1T!
1N!
1K!
1:!
1C
1A
16
15
0K!
1O!
1P!
#50000
0!
0k
#75000
1!
1k
#100000
0!
0k
#125000
1!
1k
#150000
0!
0k
#175000
1!
1k
#200000
0!
0k
#225000
1!
1k
#250000
0!
0k
#275000
1!
1k
#300000
0!
0k
#320000
0#
0l
00!
0(!
0"!
0y
0o
1Q!
03!
0,!
0%!
0|
1?!
#325000
1!
1k
#350000
0!
0k
14!
1;!
1A!
1V
1T
1-
1/
15!
1K
1$
02!
1+!
#375000
1!
1k
#375001
0y!
1s!
1o!
0n!
0m!
1l!
0g!
1a!
1]!
0\!
0[!
1Z!
1[
0\
0]
1^
1b
0h
0N!
1K!
0O!
1E!
0>!
1B!
1<!
0:!
16!
0A
1;
17
06
05
14
0P!
0J!
0T!
1N!
0K!
1F!
0?!
1K!
0Q!
#400000
0!
0k
1-!
04!
1G!
1Y
12
1.!
05!
0K
1L
1%
0$
12!
#425000
1!
1k
#425001
0{!
1z!
0s!
1r!
0o!
1n!
1m!
0l!
0i!
1h!
0a!
1`!
0]!
1\!
1[!
0Z!
0[
1\
1]
0^
1a
0b
1i
0j
1J!
0E!
1>!
1C!
1P!
1L!
1I!
0B!
0<!
1:!
06!
0C
1B
0;
1:
07
16
15
04
1T!
1E!
1M!
0J!
0C!
1D!
0>!
0N!
0F!
1?!
1Q!
1V!
1N!
0T!
0K!
0E!
1F!
0?!
1W!
0V!
0P!
0F!
0W!
1X!
0Q!
0X!
#450000
0!
0k
14!
0;!
0A!
0V
0T
0-
0/
15!
1K
1m
1$
02!
0+!
1$!
#475000
1!
1k
#475001
0z!
1y!
1s!
0h!
1g!
1a!
1b
1h
0i
1O!
0M!
1C!
1U!
1T!
0N!
1K!
0B
1A
1;
0U!
1N!
1E!
1V!
1F!
#500000
0!
0k
1&!
0-!
04!
1H!
1U
1.
1'!
0.!
05!
0K
0L
1M
0m
1&
0%
0$
1{
12!
0{
#525000
1!
1k
#525001
0y!
1x!
0s!
0r!
1q!
1p!
0n!
0m!
0g!
1f!
0a!
0`!
1_!
1^!
0\!
0[!
0\
0]
1_
1`
0a
0b
1g
0h
1W!
0T!
0N!
0K!
1"!
1P!
19!
1x
0D!
0V!
0:!
10!
1(!
1o
0L!
0I!
0A
1@
0;
0:
19
18
06
05
0F!
1V!
0O!
1%!
1|
1z
0W!
13!
1,!
0C!
0'!
1~
1N
0M
1W!
0P!
0E!
0&
1'
0$!
0&!
#550000
0!
0k
#575000
1!
1k
#575001
0x!
0p!
0f!
0^!
0_
0g
09!
0x
1:!
16!
00!
0(!
0"!
0o
0@
08
0V!
0|
03!
0,!
0%!
0W!
#600000
0!
0k
14!
0G!
0H!
0U
0Y
02
0.
15!
1K
1$
02!
1+!
#625000
1!
1k
#625001
1{!
0q!
1n!
1m!
1i!
0_!
1\!
1[!
1\
1]
0`
1j
1J!
1>!
06!
1C
09
16
15
1T!
1K!
1?!
#650000
0!
0k
1-!
04!
1A!
1V
1/
1.!
05!
0K
1L
1%
0$
12!
#675000
1!
1k
#675001
1o!
0n!
0m!
1l!
1]!
0\!
0[!
1Z!
1[
0\
0]
1^
1B!
0:!
16!
17
06
05
14
0J!
1D!
0>!
0T!
0K!
1E!
0?!
1F!
#700000
0!
0k
14!
1G!
1Y
12
15!
1K
1m
1$
02!
0+!
1$!
#725000
1!
1k
#725001
0{!
1z!
0i!
1h!
1i
0j
1J!
0E!
1>!
1C!
0C
1B
1T!
1K!
1E!
0F!
1?!
1F!
#750000
0!
0k
1&!
0-!
04!
1@!
1Z
13
1'!
0.!
05!
0K
0L
1M
0m
1&
0%
0$
1{
1n
12!
0{
0n
#775000
1!
1k
#775001
1s!
1r!
0o!
1n!
1m!
0l!
1a!
1`!
0]!
1\!
1[!
0Z!
0[
1\
1]
0^
1a
1b
1O!
0C!
0>!
1=!
1V!
1P!
1L!
1I!
1:!
06!
1;
1:
07
16
15
04
0P!
0E!
1M!
0J!
1Q!
1N!
0T!
0K!
0Q!
0F!
0V!
#800000
0!
0k
14!
15!
1K
1$
02!
1+!
#825000
1!
1k
#825001
0r!
0`!
0a
1P!
0D!
0=!
0:
1Q!
0?!
#850000
0!
0k
1-!
04!
1;!
0A!
0V
1T
1-
0/
1.!
05!
0K
1L
1%
0$
12!
#875000
1!
1k
#875001
1r!
1o!
0n!
0m!
1l!
1`!
1]!
0\!
0[!
1Z!
1[
0\
0]
1^
1a
0P!
1D!
1=!
0L!
0I!
0B!
1<!
0:!
16!
1:
17
06
05
14
0M!
1J!
1U!
0N!
1K!
0Q!
1?!
0U!
1N!
0K!
#900000
0!
0k
14!
0G!
0Y
02
15!
1K
1m
1$
02!
0+!
0$!
1{
1n
#925000
1!
1k
#925001
0z!
0s!
0o!
1n!
1m!
0l!
0h!
0a!
0]!
1\!
1[!
0Z!
0[
1\
1]
0^
0b
0i
0O!
0J!
0=!
1B!
0<!
1:!
06!
0B
0;
07
16
15
04
0D!
1>!
0N!
0?!
1?!
#950000
0!
0k
1}
0&!
0-!
04!
1p
0;!
1A!
1V
0T
1O
1q
1(
0-
1/
0~
0'!
0.!
05!
0n
0K
0L
0M
0N
0q
0m
0'
0&
0%
0$
1r
1n
12!
0r
#975000
1!
1k
#975001
1{!
0r!
1i!
0`!
0a
1j
0>!
1D!
1C
0:
1E!
0?!
1F!
#1000000
0!
0k
14!
0A!
1H!
1U
0V
0/
1.
15!
1K
1$
02!
1+!
#1025000
1!
1k
#1025001
0{!
1p!
0n!
0m!
0i!
1^!
0\!
0[!
0\
0]
1_
0j
0E!
1>!
10!
0:!
1(!
1"!
1y
1o
0B!
0C
18
06
05
0F!
13!
1,!
1%!
1|
0z
0D!
0>!
05!
0K
0$
0{
12!
0+!
04!
0}
0p
0O
0(
0n
#1050000
0!
0k
#1075000
1!
1k
#1075001
1{!
1y!
0p!
1n!
1m!
1i!
1g!
0^!
1\!
1[!
1\
1]
0_
1h
1j
1J!
1>!
00!
1T!
1N!
1K!
0"!
1:!
0(!
0y
0o
1B!
1C
1A
08
16
15
0K!
03!
1O!
0%!
0,!
0|
0J!
1D!
0>!
1?!
1P!
1K!
1E!
0?!
1Q!
1F!
#1100000
0!
0k
14!
1;!
1T
1-
15!
1K
1$
02!
1+!
#1125000
1!
1k
#1125001
0y!
1s!
1o!
0n!
0m!
1l!
0g!
1a!
1]!
0\!
0[!
1Z!
1[
0\
0]
1^
1b
0h
0T!
0N!
0K!
0O!
0E!
0D!
1L!
1I!
0B!
1<!
0:!
16!
0A
1;
17
06
05
14
0P!
1E!
1N!
1K!
0F!
0Q!
1F!
#1150000
0!
0k
1-!
04!
0@!
1G!
1Y
0Z
03
12
1.!
05!
0K
1L
1%
0$
12!
#1175000
1!
1k
#1175001
0{!
1z!
0s!
1r!
0o!
1n!
1m!
0l!
0i!
1h!
0a!
1`!
0]!
1\!
1[!
0Z!
0[
1\
1]
0^
1a
0b
1i
0j
1M!
0E!
1D!
1P!
0<!
1:!
06!
0C
1B
0;
1:
07
16
15
04
0K!
0F!
1Q!
0P!
0Q!
#1200000
0!
0k
14!
0;!
0H!
0U
0T
0-
0.
15!
1K
1m
1$
02!
0+!
1$!
#1225000
1!
1k
#1225001
0z!
1y!
1s!
0h!
1g!
1a!
1b
1h
0i
1O!
0M!
1C!
1U!
1T!
0N!
1K!
0B
1A
1;
0U!
1N!
1E!
1V!
1F!
#1250000
0!
0k
1&!
0-!
04!
1H!
1U
1.
1'!
0.!
05!
0K
0L
1M
0m
1&
0%
0$
1{
12!
0{
#1275000
1!
1k
#1275001
0y!
1x!
0s!
0r!
1q!
1p!
0n!
0m!
0g!
1f!
0a!
0`!
1_!
1^!
0\!
0[!
0\
0]
1_
1`
0a
0b
1g
0h
1W!
0T!
0N!
0K!
1"!
1P!
19!
1x
0D!
0V!
0:!
10!
1(!
1o
0L!
0I!
0A
1@
0;
0:
19
18
06
05
0F!
1V!
0O!
1%!
1|
1z
0W!
13!
1,!
0C!
0'!
1~
1N
0M
1W!
0P!
0E!
0&
1'
0$!
0&!
#1300000
0!
0k
#1325000
1!
1k
#1325001
0x!
0p!
0f!
0^!
0_
0g
09!
0x
1:!
16!
00!
0(!
0"!
0o
0@
08
0V!
0|
03!
0,!
0%!
0W!
#1350000
0!
0k
14!
0G!
0H!
0U
0Y
02
0.
15!
1K
1$
02!
1+!
#1375000
1!
1k
#1375001
1{!
0q!
1n!
1m!
1i!
0_!
1\!
1[!
1\
1]
0`
1j
1J!
1>!
06!
1C
09
16
15
1T!
1K!
1?!
#1400000
0!
0k
1-!
04!
1A!
1V
1/
1.!
05!
0K
1L
1%
0$
12!
#1425000
1!
1k
#1425001
1o!
0n!
0m!
1l!
1]!
0\!
0[!
1Z!
1[
0\
0]
1^
1B!
0:!
16!
17
06
05
14
0J!
1D!
0>!
0T!
0K!
1E!
0?!
1F!
#1450000
0!
0k
14!
1G!
1Y
12
15!
1K
1m
1$
02!
0+!
1$!
#1475000
1!
1k
#1475001
0{!
1z!
0i!
1h!
1i
0j
1J!
0E!
1>!
1C!
0C
1B
1T!
1K!
1E!
0F!
1?!
1F!
#1500000
0!
0k
1&!
0-!
04!
1@!
1Z
13
1'!
0.!
05!
0K
0L
1M
0m
1&
0%
0$
1{
1n
12!
0{
0n
#1525000
1!
1k
#1525001
1s!
1r!
0o!
1n!
1m!
0l!
1a!
1`!
0]!
1\!
1[!
0Z!
0[
1\
1]
0^
1a
1b
1O!
0C!
0>!
1=!
1V!
1P!
1L!
1I!
1:!
06!
1;
1:
07
16
15
04
0P!
0E!
1M!
0J!
1Q!
1N!
0T!
0K!
0Q!
0F!
0V!
#1550000
0!
0k
14!
15!
1K
1$
02!
1+!
#1575000
1!
1k
#1575001
0r!
0`!
0a
1P!
0D!
0=!
0:
1Q!
0?!
#1600000
0!
0k
1-!
04!
1;!
0A!
0V
1T
1-
0/
1.!
05!
0K
1L
1%
0$
12!
#1625000
1!
1k
#1625001
1r!
1o!
0n!
0m!
1l!
1`!
1]!
0\!
0[!
1Z!
1[
0\
0]
1^
1a
0P!
1D!
1=!
0L!
0I!
0B!
1<!
0:!
16!
1:
17
06
05
14
0M!
1J!
1U!
0N!
1K!
0Q!
1?!
0U!
1N!
0K!
#1650000
0!
0k
14!
0G!
0Y
02
15!
1K
1m
1$
02!
0+!
0$!
1{
1n
#1675000
1!
1k
#1675001
0z!
0s!
0o!
1n!
1m!
0l!
0h!
0a!
0]!
1\!
1[!
0Z!
0[
1\
1]
0^
0b
0i
0O!
0J!
0=!
1B!
0<!
1:!
06!
0B
0;
07
16
15
04
0D!
1>!
0N!
0?!
1?!
#1700000
0!
0k
1}
0&!
0-!
04!
1p
0;!
1A!
1V
0T
1O
1q
1(
0-
1/
0~
0'!
0.!
05!
0n
0K
0L
0M
0N
0q
0m
0'
0&
0%
0$
1r
1n
12!
0r
#1725000
1!
1k
#1725001
1{!
0r!
1i!
0`!
0a
1j
0>!
1D!
1C
0:
1E!
0?!
1F!
#1750000
0!
0k
14!
0A!
1H!
1U
0V
0/
1.
15!
1K
1$
02!
1+!
#1775000
1!
1k
#1775001
0{!
1p!
0n!
0m!
0i!
1^!
0\!
0[!
0\
0]
1_
0j
0E!
1>!
10!
0:!
1(!
1"!
1y
1o
0B!
0C
18
06
05
0F!
13!
1,!
1%!
1|
0z
0D!
0>!
05!
0K
0$
0{
12!
0+!
04!
0}
0p
0O
0(
0n
#1800000
0!
0k
#1825000
1!
1k
#1825001
1{!
1y!
0p!
1n!
1m!
1i!
1g!
0^!
1\!
1[!
1\
1]
0_
1h
1j
1J!
1>!
00!
1T!
1N!
1K!
0"!
1:!
0(!
0y
0o
1B!
1C
1A
08
16
15
0K!
03!
1O!
0%!
0,!
0|
0J!
1D!
0>!
1?!
1P!
1K!
1E!
0?!
1Q!
1F!
#1850000
0!
0k
14!
1;!
1T
1-
15!
1K
1$
02!
1+!
#1875000
1!
1k
#1875001
0y!
1s!
1o!
0n!
0m!
1l!
0g!
1a!
1]!
0\!
0[!
1Z!
1[
0\
0]
1^
1b
0h
0T!
0N!
0K!
0O!
0E!
0D!
1L!
1I!
0B!
1<!
0:!
16!
0A
1;
17
06
05
14
0P!
1E!
1N!
1K!
0F!
0Q!
1F!
#1900000
0!
0k
1-!
04!
0@!
1G!
1Y
0Z
03
12
1.!
05!
0K
1L
1%
0$
12!
#1925000
1!
1k
#1925001
0{!
1z!
0s!
1r!
0o!
1n!
1m!
0l!
0i!
1h!
0a!
1`!
0]!
1\!
1[!
0Z!
0[
1\
1]
0^
1a
0b
1i
0j
1M!
0E!
1D!
1P!
0<!
1:!
06!
0C
1B
0;
1:
07
16
15
04
0K!
0F!
1Q!
0P!
0Q!
#1950000
0!
0k
14!
0;!
0H!
0U
0T
0-
0.
15!
1K
1m
1$
02!
0+!
1$!
#1975000
1!
1k
#1975001
0z!
1y!
1s!
0h!
1g!
1a!
1b
1h
0i
1O!
0M!
1C!
1U!
1T!
0N!
1K!
0B
1A
1;
0U!
1N!
1E!
1V!
1F!
#2000000
0!
0k
1&!
0-!
04!
1H!
1U
1.
1'!
0.!
05!
0K
0L
1M
0m
1&
0%
0$
1{
12!
0{
#2025000
1!
1k
#2025001
0y!
1x!
0s!
0r!
1q!
1p!
0n!
0m!
0g!
1f!
0a!
0`!
1_!
1^!
0\!
0[!
0\
0]
1_
1`
0a
0b
1g
0h
1W!
0T!
0N!
0K!
1"!
1P!
19!
1x
0D!
0V!
0:!
10!
1(!
1o
0L!
0I!
0A
1@
0;
0:
19
18
06
05
0F!
1V!
0O!
1%!
1|
1z
0W!
13!
1,!
0C!
0'!
1~
1N
0M
1W!
0P!
0E!
0&
1'
0$!
0&!
#2050000
0!
0k
#2075000
1!
1k
#2075001
0x!
0p!
0f!
0^!
0_
0g
09!
0x
1:!
16!
00!
0(!
0"!
0o
0@
08
0V!
0|
03!
0,!
0%!
0W!
#2100000
0!
0k
14!
0G!
0H!
0U
0Y
02
0.
15!
1K
1$
02!
1+!
#2125000
1!
1k
#2125001
1{!
0q!
1n!
1m!
1i!
0_!
1\!
1[!
1\
1]
0`
1j
1J!
1>!
06!
1C
09
16
15
1T!
1K!
1?!
#2150000
0!
0k
1-!
04!
1A!
1V
1/
1.!
05!
0K
1L
1%
0$
12!
#2175000
1!
1k
#2175001
1o!
0n!
0m!
1l!
1]!
0\!
0[!
1Z!
1[
0\
0]
1^
1B!
0:!
16!
17
06
05
14
0J!
1D!
0>!
0T!
0K!
1E!
0?!
1F!
#2200000
0!
0k
14!
1G!
1Y
12
15!
1K
1m
1$
02!
0+!
1$!
#2225000
1!
1k
#2225001
0{!
1z!
0i!
1h!
1i
0j
1J!
0E!
1>!
1C!
0C
1B
1T!
1K!
1E!
0F!
1?!
1F!
#2250000
0!
0k
1&!
0-!
04!
1@!
1Z
13
1'!
0.!
05!
0K
0L
1M
0m
1&
0%
0$
1{
1n
12!
0{
0n
#2275000
1!
1k
#2275001
1s!
1r!
0o!
1n!
1m!
0l!
1a!
1`!
0]!
1\!
1[!
0Z!
0[
1\
1]
0^
1a
1b
1O!
0C!
0>!
1=!
1V!
1P!
1L!
1I!
1:!
06!
1;
1:
07
16
15
04
0P!
0E!
1M!
0J!
1Q!
1N!
0T!
0K!
0Q!
0F!
0V!
#2300000
0!
0k
14!
15!
1K
1$
02!
1+!
#2325000
1!
1k
#2325001
0r!
0`!
0a
1P!
0D!
0=!
0:
1Q!
0?!
#2350000
0!
0k
1-!
04!
1;!
0A!
0V
1T
1-
0/
1.!
05!
0K
1L
1%
0$
12!
#2375000
1!
1k
#2375001
1r!
1o!
0n!
0m!
1l!
1`!
1]!
0\!
0[!
1Z!
1[
0\
0]
1^
1a
0P!
1D!
1=!
0L!
0I!
0B!
1<!
0:!
16!
1:
17
06
05
14
0M!
1J!
1U!
0N!
1K!
0Q!
1?!
0U!
1N!
0K!
#2400000
0!
0k
14!
0G!
0Y
02
15!
1K
1m
1$
02!
0+!
0$!
1{
1n
#2425000
1!
1k
#2425001
0z!
0s!
0o!
1n!
1m!
0l!
0h!
0a!
0]!
1\!
1[!
0Z!
0[
1\
1]
0^
0b
0i
0O!
0J!
0=!
1B!
0<!
1:!
06!
0B
0;
07
16
15
04
0D!
1>!
0N!
0?!
1?!
#2450000
0!
0k
1}
0&!
0-!
04!
1p
0;!
1A!
1V
0T
1O
1q
1(
0-
1/
0~
0'!
0.!
05!
0n
0K
0L
0M
0N
0q
0m
0'
0&
0%
0$
1r
1n
12!
0r
#2475000
1!
1k
#2475001
1{!
0r!
1i!
0`!
0a
1j
0>!
1D!
1C
0:
1E!
0?!
1F!
#2500000
0!
0k
14!
0A!
1H!
1U
0V
0/
1.
15!
1K
1$
02!
1+!
#2525000
1!
1k
#2525001
0{!
1p!
0n!
0m!
0i!
1^!
0\!
0[!
0\
0]
1_
0j
0E!
1>!
10!
0:!
1(!
1"!
1y
1o
0B!
0C
18
06
05
0F!
13!
1,!
1%!
1|
0z
0D!
0>!
05!
0K
0$
0{
12!
0+!
04!
0}
0p
0O
0(
0n
#2550000
0!
0k
#2575000
1!
1k
#2575001
1{!
1y!
0p!
1n!
1m!
1i!
1g!
0^!
1\!
1[!
1\
1]
0_
1h
1j
1J!
1>!
00!
1T!
1N!
1K!
0"!
1:!
0(!
0y
0o
1B!
1C
1A
08
16
15
0K!
03!
1O!
0%!
0,!
0|
0J!
1D!
0>!
1?!
1P!
1K!
1E!
0?!
1Q!
1F!
#2600000
0!
0k
14!
1;!
1T
1-
15!
1K
1$
02!
1+!
#2625000
1!
1k
#2625001
0y!
1s!
1o!
0n!
0m!
1l!
0g!
1a!
1]!
0\!
0[!
1Z!
1[
0\
0]
1^
1b
0h
0T!
0N!
0K!
0O!
0E!
0D!
1L!
1I!
0B!
1<!
0:!
16!
0A
1;
17
06
05
14
0P!
1E!
1N!
1K!
0F!
0Q!
1F!
#2650000
0!
0k
1-!
04!
0@!
1G!
1Y
0Z
03
12
1.!
05!
0K
1L
1%
0$
12!
#2675000
1!
1k
