CPU/simulation/qsim/CPU.msim.vcd
$comment
	File created using the following command:
		vcd file CPU.msim.vcd -direction
$end
$date
	Tue Oct 31 14:24:10 2023
$end
$version
	ModelSim Version 10.5b
$end
$timescale
	1ps
$end

$scope module CPU_vlg_vec_tst $end
$var reg 1 ! CLK $end
$var reg 1 " CLK50 $end
$var reg 1 # resetMaster $end
$var wire 1 $ Contador0 $end
$var wire 1 % Contador1 $end
$var wire 1 & Contador2 $end
$var wire 1 ' Contador3 $end
$var wire 1 ( Contador4 $end
$var wire 1 ) Contador5 $end
$var wire 1 * Contador6 $end
$var wire 1 + Contador7 $end
$var wire 1 , D01 [0] $end
$var wire 1 - D01 [1] $end
$var wire 1 . D01 [2] $end
$var wire 1 / D01 [3] $end
$var wire 1 0 D10 [0] $end
$var wire 1 1 D10 [1] $end
$var wire 1 2 D10 [2] $end
$var wire 1 3 D10 [3] $end
$var wire 1 4 Reg01A $end
$var wire 1 5 Reg01B $end
$var wire 1 6 Reg01C $end
$var wire 1 7 Reg01D $end
$var wire 1 8 Reg01E $end
$var wire 1 9 Reg01F $end
$var wire 1 : Reg01G $end
$var wire 1 ; Reg10A $end
$var wire 1 < Reg10B $end
$var wire 1 = Reg10C $end
$var wire 1 > Reg10D $end
$var wire 1 ? Reg10E $end
$var wire 1 @ Reg10F $end
$var wire 1 A Reg10G $end
$var wire 1 B ROM7segA0 $end
$var wire 1 C ROM7segA1 $end
$var wire 1 D ROM7segA2 $end
$var wire 1 E ROM7segA3 $end
$var wire 1 F ROM7segB0 $end
$var wire 1 G ROM7segB1 $end
$var wire 1 H ROM7segB2 $end
$var wire 1 I ROM7segB3 $end
$var wire 1 J ROM7segC0 $end
$var wire 1 K ROM7segC1 $end
$var wire 1 L ROM7segC2 $end
$var wire 1 M ROM7segC3 $end
$var wire 1 N ROM7segD0 $end
$var wire 1 O ROM7segD1 $end
$var wire 1 P ROM7segD2 $end
$var wire 1 Q ROM7segD3 $end
$var wire 1 R ROM7segE0 $end
$var wire 1 S ROM7segE1 $end
$var wire 1 T ROM7segE2 $end
$var wire 1 U ROM7segE3 $end
$var wire 1 V ROM7segF0 $end
$var wire 1 W ROM7segF1 $end
$var wire 1 X ROM7segF2 $end
$var wire 1 Y ROM7segF3 $end
$var wire 1 Z ROM7segG0 $end
$var wire 1 [ ROM7segG1 $end
$var wire 1 \ ROM7segG2 $end
$var wire 1 ] ROM7segG3 $end

$scope module i1 $end
$var wire 1 ^ gnd $end
$var wire 1 _ vcc $end
$var wire 1 ` unknown $end
$var tri1 1 a devclrn $end
$var tri1 1 b devpor $end
$var tri1 1 c devoe $end
$var wire 1 d ROM7segA0~output_o $end
$var wire 1 e Contador7~output_o $end
$var wire 1 f Contador6~output_o $end
$var wire 1 g Contador5~output_o $end
$var wire 1 h Contador4~output_o $end
$var wire 1 i Contador3~output_o $end
$var wire 1 j Contador2~output_o $end
$var wire 1 k Contador1~output_o $end
$var wire 1 l Contador0~output_o $end
$var wire 1 m ROM7segB0~output_o $end
$var wire 1 n ROM7segC0~output_o $end
$var wire 1 o ROM7segD0~output_o $end
$var wire 1 p ROM7segE0~output_o $end
$var wire 1 q ROM7segF0~output_o $end
$var wire 1 r ROM7segG0~output_o $end
$var wire 1 s ROM7segA1~output_o $end
$var wire 1 t ROM7segA2~output_o $end
$var wire 1 u ROM7segA3~output_o $end
$var wire 1 v ROM7segD1~output_o $end
$var wire 1 w ROM7segD2~output_o $end
$var wire 1 x ROM7segD3~output_o $end
$var wire 1 y ROM7segE1~output_o $end
$var wire 1 z ROM7segE2~output_o $end
$var wire 1 { ROM7segE3~output_o $end
$var wire 1 | ROM7segF1~output_o $end
$var wire 1 } ROM7segF2~output_o $end
$var wire 1 ~ ROM7segF3~output_o $end
$var wire 1 !! ROM7segG1~output_o $end
$var wire 1 "! ROM7segG2~output_o $end
$var wire 1 #! ROM7segG3~output_o $end
$var wire 1 $! ROM7segB1~output_o $end
$var wire 1 %! ROM7segC1~output_o $end
$var wire 1 &! ROM7segB2~output_o $end
$var wire 1 '! ROM7segC2~output_o $end
$var wire 1 (! ROM7segB3~output_o $end
$var wire 1 )! ROM7segC3~output_o $end
$var wire 1 *! Reg01A~output_o $end
$var wire 1 +! D01[0]~output_o $end
$var wire 1 ,! D01[1]~output_o $end
$var wire 1 -! D01[2]~output_o $end
$var wire 1 .! D01[3]~output_o $end
$var wire 1 /! D10[0]~output_o $end
$var wire 1 0! D10[1]~output_o $end
$var wire 1 1! D10[2]~output_o $end
$var wire 1 2! D10[3]~output_o $end
$var wire 1 3! Reg01B~output_o $end
$var wire 1 4! Reg01C~output_o $end
$var wire 1 5! Reg01D~output_o $end
$var wire 1 6! Reg01E~output_o $end
$var wire 1 7! Reg01F~output_o $end
$var wire 1 8! Reg01G~output_o $end
$var wire 1 9! Reg10A~output_o $end
$var wire 1 :! Reg10B~output_o $end
$var wire 1 ;! Reg10C~output_o $end
$var wire 1 <! Reg10D~output_o $end
$var wire 1 =! Reg10E~output_o $end
$var wire 1 >! Reg10F~output_o $end
$var wire 1 ?! Reg10G~output_o $end
$var wire 1 @! resetMaster~input_o $end
$var wire 1 A! CLK~input_o $end
$var wire 1 B! DFAFBG|inst1|out_key~1_combout $end
$var wire 1 C! CLK50~input_o $end
$var wire 1 D! CLK50~inputclkctrl_outclk $end
$var wire 1 E! DFAFBG|inst1|intermediate~1_combout $end
$var wire 1 F! DFAFBG|inst1|intermediate~_emulatedfeeder_combout $end
$var wire 1 G! DFAFBG|inst1|intermediate~_emulated_q $end
$var wire 1 H! DFAFBG|inst1|intermediate~0_combout $end
$var wire 1 I! DFAFBG|inst1|counter[0]~16_combout $end
$var wire 1 J! DFAFBG|inst1|always0~0_combout $end
$var wire 1 K! DFAFBG|inst1|counter[0]~17 $end
$var wire 1 L! DFAFBG|inst1|counter[1]~18_combout $end
$var wire 1 M! DFAFBG|inst1|counter[1]~19 $end
$var wire 1 N! DFAFBG|inst1|counter[2]~20_combout $end
$var wire 1 O! DFAFBG|inst1|counter[2]~21 $end
$var wire 1 P! DFAFBG|inst1|counter[3]~22_combout $end
$var wire 1 Q! DFAFBG|inst1|counter[3]~23 $end
$var wire 1 R! DFAFBG|inst1|counter[4]~24_combout $end
$var wire 1 S! DFAFBG|inst1|counter[4]~25 $end
$var wire 1 T! DFAFBG|inst1|counter[5]~26_combout $end
$var wire 1 U! DFAFBG|inst1|counter[5]~27 $end
$var wire 1 V! DFAFBG|inst1|counter[6]~28_combout $end
$var wire 1 W! DFAFBG|inst1|counter[6]~29 $end
$var wire 1 X! DFAFBG|inst1|counter[7]~30_combout $end
$var wire 1 Y! DFAFBG|inst1|counter[7]~31 $end
$var wire 1 Z! DFAFBG|inst1|counter[8]~32_combout $end
$var wire 1 [! DFAFBG|inst1|counter[8]~33 $end
$var wire 1 \! DFAFBG|inst1|counter[9]~34_combout $end
$var wire 1 ]! DFAFBG|inst1|counter[9]~35 $end
$var wire 1 ^! DFAFBG|inst1|counter[10]~36_combout $end
$var wire 1 _! DFAFBG|inst1|counter[10]~37 $end
$var wire 1 `! DFAFBG|inst1|counter[11]~38_combout $end
$var wire 1 a! DFAFBG|inst1|counter[11]~39 $end
$var wire 1 b! DFAFBG|inst1|counter[12]~40_combout $end
$var wire 1 c! DFAFBG|inst1|counter[12]~41 $end
$var wire 1 d! DFAFBG|inst1|counter[13]~42_combout $end
$var wire 1 e! DFAFBG|inst1|counter[13]~43 $end
$var wire 1 f! DFAFBG|inst1|counter[14]~44_combout $end
$var wire 1 g! DFAFBG|inst1|counter[14]~45 $end
$var wire 1 h! DFAFBG|inst1|counter[15]~46_combout $end
$var wire 1 i! DFAFBG|inst1|out_key~6_combout $end
$var wire 1 j! DFAFBG|inst1|out_key~7_combout $end
$var wire 1 k! DFAFBG|inst1|out_key~5_combout $end
$var wire 1 l! DFAFBG|inst1|out_key~8_combout $end
$var wire 1 m! DFAFBG|inst1|out_key~9_combout $end
$var wire 1 n! DFAFBG|inst1|out_key~10_combout $end
$var wire 1 o! DFAFBG|inst1|out_key~3_combout $end
$var wire 1 p! DFAFBG|inst1|out_key~_emulated_q $end
$var wire 1 q! DFAFBG|inst1|out_key~2_combout $end
$var wire 1 r! DFAFBG|inst1|out_key~2clkctrl_outclk $end
$var wire 1 s! inst13|adgsdfgseg|out_key~1_combout $end
$var wire 1 t! inst13|adgsdfgseg|counter[0]~16_combout $end
$var wire 1 u! inst13|adgsdfgseg|intermediate~1_combout $end
$var wire 1 v! inst13|adgsdfgseg|intermediate~_emulatedfeeder_combout $end
$var wire 1 w! inst13|adgsdfgseg|intermediate~_emulated_q $end
$var wire 1 x! inst13|adgsdfgseg|intermediate~0_combout $end
$var wire 1 y! inst13|adgsdfgseg|always0~0_combout $end
$var wire 1 z! inst13|adgsdfgseg|counter[0]~17 $end
$var wire 1 {! inst13|adgsdfgseg|counter[1]~18_combout $end
$var wire 1 |! inst13|adgsdfgseg|counter[1]~19 $end
$var wire 1 }! inst13|adgsdfgseg|counter[2]~20_combout $end
$var wire 1 ~! inst13|adgsdfgseg|counter[2]~21 $end
$var wire 1 !" inst13|adgsdfgseg|counter[3]~22_combout $end
$var wire 1 "" inst13|adgsdfgseg|counter[3]~23 $end
$var wire 1 #" inst13|adgsdfgseg|counter[4]~24_combout $end
$var wire 1 $" inst13|adgsdfgseg|counter[4]~25 $end
$var wire 1 %" inst13|adgsdfgseg|counter[5]~26_combout $end
$var wire 1 &" inst13|adgsdfgseg|counter[5]~27 $end
$var wire 1 '" inst13|adgsdfgseg|counter[6]~28_combout $end
$var wire 1 (" inst13|adgsdfgseg|counter[6]~29 $end
$var wire 1 )" inst13|adgsdfgseg|counter[7]~30_combout $end
$var wire 1 *" inst13|adgsdfgseg|counter[7]~31 $end
$var wire 1 +" inst13|adgsdfgseg|counter[8]~32_combout $end
$var wire 1 ," inst13|adgsdfgseg|counter[8]~33 $end
$var wire 1 -" inst13|adgsdfgseg|counter[9]~34_combout $end
$var wire 1 ." inst13|adgsdfgseg|counter[9]~35 $end
$var wire 1 /" inst13|adgsdfgseg|counter[10]~36_combout $end
$var wire 1 0" inst13|adgsdfgseg|counter[10]~37 $end
$var wire 1 1" inst13|adgsdfgseg|counter[11]~38_combout $end
$var wire 1 2" inst13|adgsdfgseg|counter[11]~39 $end
$var wire 1 3" inst13|adgsdfgseg|counter[12]~40_combout $end
$var wire 1 4" inst13|adgsdfgseg|counter[12]~41 $end
$var wire 1 5" inst13|adgsdfgseg|counter[13]~42_combout $end
$var wire 1 6" inst13|adgsdfgseg|counter[13]~43 $end
$var wire 1 7" inst13|adgsdfgseg|counter[14]~44_combout $end
$var wire 1 8" inst13|adgsdfgseg|counter[14]~45 $end
$var wire 1 9" inst13|adgsdfgseg|counter[15]~46_combout $end
$var wire 1 :" inst13|adgsdfgseg|out_key~6_combout $end
$var wire 1 ;" inst13|adgsdfgseg|out_key~7_combout $end
$var wire 1 <" inst13|adgsdfgseg|out_key~5_combout $end
$var wire 1 =" inst13|adgsdfgseg|out_key~8_combout $end
$var wire 1 >" inst13|adgsdfgseg|out_key~9_combout $end
$var wire 1 ?" inst13|adgsdfgseg|out_key~10_combout $end
$var wire 1 @" inst13|adgsdfgseg|out_key~3_combout $end
$var wire 1 A" inst13|adgsdfgseg|out_key~_emulated_q $end
$var wire 1 B" inst13|adgsdfgseg|out_key~2_combout $end
$var wire 1 C" inst13|adgsdfgseg|out_key~2clkctrl_outclk $end
$var wire 1 D" inst13|inst2~combout $end
$var wire 1 E" inst13|inst8~0_combout $end
$var wire 1 F" inst13|inst40~0_combout $end
$var wire 1 G" inst13|inst8~q $end
$var wire 1 H" inst13|inst5~combout $end
$var wire 1 I" inst13|agh~0_combout $end
$var wire 1 J" inst13|agh~q $end
$var wire 1 K" inst13|inst10~0_combout $end
$var wire 1 L" inst13|inst10~1_combout $end
$var wire 1 M" inst13|inst10~q $end
$var wire 1 N" inst13|asd~0_combout $end
$var wire 1 O" inst13|asd~q $end
$var wire 1 P" inst13|inst24~combout $end
$var wire 1 Q" inst13|inst27~combout $end
$var wire 1 R" inst13|inst7~1_combout $end
$var wire 1 S" inst13|inst7~3_combout $end
$var wire 1 T" inst13|inst7~0_combout $end
$var wire 1 U" inst13|inst7~_emulated_q $end
$var wire 1 V" inst13|inst7~2_combout $end
$var wire 1 W" inst13|inst23~combout $end
$var wire 1 X" inst13|inst20~combout $end
$var wire 1 Y" inst13|inst6~1_combout $end
$var wire 1 Z" inst13|inst6~3_combout $end
$var wire 1 [" inst13|inst6~0_combout $end
$var wire 1 \" inst13|inst6~_emulated_q $end
$var wire 1 ]" inst13|inst6~2_combout $end
$var wire 1 ^" inst13|inst16~combout $end
$var wire 1 _" inst13|inst19~combout $end
$var wire 1 `" inst13|inst1~1_combout $end
$var wire 1 a" inst13|inst1~3_combout $end
$var wire 1 b" inst13|inst1~0_combout $end
$var wire 1 c" inst13|inst1~_emulated_q $end
$var wire 1 d" inst13|inst1~2_combout $end
$var wire 1 e" inst13|inst12~combout $end
$var wire 1 f" inst13|inst15~combout $end
$var wire 1 g" inst13|inst~1_combout $end
$var wire 1 h" inst13|inst~3_combout $end
$var wire 1 i" inst13|inst~0_combout $end
$var wire 1 j" inst13|inst~_emulated_q $end
$var wire 1 k" inst13|inst~2_combout $end
$var wire 1 l" inst56|inst19~0_combout $end
$var wire 1 m" inst56|inst22~0_combout $end
$var wire 1 n" inst56|inst62~0_combout $end
$var wire 1 o" inst56|inst70~0_combout $end
$var wire 1 p" inst56|inst8~0_combout $end
$var wire 1 q" inst56|inst83~0_combout $end
$var wire 1 r" inst56|inst84~0_combout $end
$var wire 1 s" inst57|inst19~0_combout $end
$var wire 1 t" inst58|inst19~0_combout $end
$var wire 1 u" inst59|inst19~0_combout $end
$var wire 1 v" inst57|inst70~0_combout $end
$var wire 1 w" inst58|inst70~0_combout $end
$var wire 1 x" inst59|inst70~0_combout $end
$var wire 1 y" inst57|inst8~0_combout $end
$var wire 1 z" inst58|inst8~0_combout $end
$var wire 1 {" inst59|inst8~0_combout $end
$var wire 1 |" inst57|inst83~0_combout $end
$var wire 1 }" inst58|inst83~0_combout $end
$var wire 1 ~" inst59|inst83~0_combout $end
$var wire 1 !# inst57|inst84~0_combout $end
$var wire 1 "# inst58|inst84~0_combout $end
$var wire 1 ## inst59|inst84~0_combout $end
$var wire 1 $# inst57|inst22~0_combout $end
$var wire 1 %# inst57|inst62~0_combout $end
$var wire 1 &# inst58|inst22~0_combout $end
$var wire 1 '# inst58|inst62~0_combout $end
$var wire 1 (# inst59|inst22~0_combout $end
$var wire 1 )# inst59|inst62~0_combout $end
$var wire 1 *# inst3|inst2|out_key~1_combout $end
$var wire 1 +# inst3|inst2|out_key~_emulated_q $end
$var wire 1 ,# inst3|inst2|out_key~0_combout $end
$var wire 1 -# inst3|inst2|out_key~0clkctrl_outclk $end
$var wire 1 .# inst25|inst44~1_combout $end
$var wire 1 /# inst25|inst44~2_combout $end
$var wire 1 0# inst25|inst42~0_combout $end
$var wire 1 1# inst4|inst2|out_key~_emulated_q $end
$var wire 1 2# inst4|inst2|out_key~0_combout $end
$var wire 1 3# inst4|inst2|out_key~0clkctrl_outclk $end
$var wire 1 4# inst4|inst17~0_combout $end
$var wire 1 5# inst4|inst11~q $end
$var wire 1 6# inst25|inst36~combout $end
$var wire 1 7# inst25|inst40~0_combout $end
$var wire 1 8# inst25|inst40~1_combout $end
$var wire 1 9# inst3|inst17~0_combout $end
$var wire 1 :# inst3|inst15~q $end
$var wire 1 ;# inst4|inst15~q $end
$var wire 1 <# inst25|inst30~combout $end
$var wire 1 =# inst25|inst42~1_combout $end
$var wire 1 ># inst25|inst42~2_combout $end
$var wire 1 ?# inst25|inst42~3_combout $end
$var wire 1 @# inst25|inst42~4_combout $end
$var wire 1 A# inst3|inst13~q $end
$var wire 1 B# inst4|inst13~q $end
$var wire 1 C# inst25|inst33~combout $end
$var wire 1 D# inst25|inst6|inst1|inst7~0_combout $end
$var wire 1 E# inst25|inSAst|inst1|inst7~0_combout $end
$var wire 1 F# inst25|inSAst|asdasd|inst2~0_combout $end
$var wire 1 G# inst25|inSAst|asdasd|inst2~combout $end
$var wire 1 H# inst25|inSAst|inst1|inst7~1_combout $end
$var wire 1 I# inst25|inst44~0_combout $end
$var wire 1 J# inst25|inst44~3_combout $end
$var wire 1 K# inst3|inst11~q $end
$var wire 1 L# inst25|inst46~0_combout $end
$var wire 1 M# inst25|inst46~1_combout $end
$var wire 1 N# inst25|inst46~2_combout $end
$var wire 1 O# inst25|inSAst|inst2|inst7~0_combout $end
$var wire 1 P# inst25|inSAst|inst2|inst7~1_combout $end
$var wire 1 Q# inst25|inst46~3_combout $end
$var wire 1 R# inst4|inst~q $end
$var wire 1 S# inst25|inst39~combout $end
$var wire 1 T# inst25|inst6|inst3|inst1~0_combout $end
$var wire 1 U# inst25|inst46~4_combout $end
$var wire 1 V# inst3|inst~q $end
$var wire 1 W# inst61|inst19~0_combout $end
$var wire 1 X# inst61|inst22~0_combout $end
$var wire 1 Y# inst61|inst62~0_combout $end
$var wire 1 Z# inst61|inst70~0_combout $end
$var wire 1 [# inst61|inst8~0_combout $end
$var wire 1 \# inst61|inst83~0_combout $end
$var wire 1 ]# inst61|inst84~0_combout $end
$var wire 1 ^# inst62|inst19~0_combout $end
$var wire 1 _# inst62|inst22~0_combout $end
$var wire 1 `# inst62|inst62~0_combout $end
$var wire 1 a# inst62|inst70~0_combout $end
$var wire 1 b# inst62|inst8~0_combout $end
$var wire 1 c# inst62|inst83~0_combout $end
$var wire 1 d# inst62|inst84~0_combout $end
$var wire 1 e# DFAFBG|inst|altsyncram_component|auto_generated|q_a [15] $end
$var wire 1 f# DFAFBG|inst|altsyncram_component|auto_generated|q_a [14] $end
$var wire 1 g# DFAFBG|inst|altsyncram_component|auto_generated|q_a [13] $end
$var wire 1 h# DFAFBG|inst|altsyncram_component|auto_generated|q_a [12] $end
$var wire 1 i# DFAFBG|inst|altsyncram_component|auto_generated|q_a [11] $end
$var wire 1 j# DFAFBG|inst|altsyncram_component|auto_generated|q_a [10] $end
$var wire 1 k# DFAFBG|inst|altsyncram_component|auto_generated|q_a [9] $end
$var wire 1 l# DFAFBG|inst|altsyncram_component|auto_generated|q_a [8] $end
$var wire 1 m# DFAFBG|inst|altsyncram_component|auto_generated|q_a [7] $end
$var wire 1 n# DFAFBG|inst|altsyncram_component|auto_generated|q_a [6] $end
$var wire 1 o# DFAFBG|inst|altsyncram_component|auto_generated|q_a [5] $end
$var wire 1 p# DFAFBG|inst|altsyncram_component|auto_generated|q_a [4] $end
$var wire 1 q# DFAFBG|inst|altsyncram_component|auto_generated|q_a [3] $end
$var wire 1 r# DFAFBG|inst|altsyncram_component|auto_generated|q_a [2] $end
$var wire 1 s# DFAFBG|inst|altsyncram_component|auto_generated|q_a [1] $end
$var wire 1 t# DFAFBG|inst|altsyncram_component|auto_generated|q_a [0] $end
$var wire 1 u# DFAFBG|inst1|counter [15] $end
$var wire 1 v# DFAFBG|inst1|counter [14] $end
$var wire 1 w# DFAFBG|inst1|counter [13] $end
$var wire 1 x# DFAFBG|inst1|counter [12] $end
$var wire 1 y# DFAFBG|inst1|counter [11] $end
$var wire 1 z# DFAFBG|inst1|counter [10] $end
$var wire 1 {# DFAFBG|inst1|counter [9] $end
$var wire 1 |# DFAFBG|inst1|counter [8] $end
$var wire 1 }# DFAFBG|inst1|counter [7] $end
$var wire 1 ~# DFAFBG|inst1|counter [6] $end
$var wire 1 !$ DFAFBG|inst1|counter [5] $end
$var wire 1 "$ DFAFBG|inst1|counter [4] $end
$var wire 1 #$ DFAFBG|inst1|counter [3] $end
$var wire 1 $$ DFAFBG|inst1|counter [2] $end
$var wire 1 %$ DFAFBG|inst1|counter [1] $end
$var wire 1 &$ DFAFBG|inst1|counter [0] $end
$var wire 1 '$ inst13|adgsdfgseg|counter [15] $end
$var wire 1 ($ inst13|adgsdfgseg|counter [14] $end
$var wire 1 )$ inst13|adgsdfgseg|counter [13] $end
$var wire 1 *$ inst13|adgsdfgseg|counter [12] $end
$var wire 1 +$ inst13|adgsdfgseg|counter [11] $end
$var wire 1 ,$ inst13|adgsdfgseg|counter [10] $end
$var wire 1 -$ inst13|adgsdfgseg|counter [9] $end
$var wire 1 .$ inst13|adgsdfgseg|counter [8] $end
$var wire 1 /$ inst13|adgsdfgseg|counter [7] $end
$var wire 1 0$ inst13|adgsdfgseg|counter [6] $end
$var wire 1 1$ inst13|adgsdfgseg|counter [5] $end
$var wire 1 2$ inst13|adgsdfgseg|counter [4] $end
$var wire 1 3$ inst13|adgsdfgseg|counter [3] $end
$var wire 1 4$ inst13|adgsdfgseg|counter [2] $end
$var wire 1 5$ inst13|adgsdfgseg|counter [1] $end
$var wire 1 6$ inst13|adgsdfgseg|counter [0] $end
$var wire 1 7$ DFAFBG|inst|altsyncram_component|auto_generated|ram_block1a0_PORTADATAOUT_bus [17] $end
$var wire 1 8$ DFAFBG|inst|altsyncram_component|auto_generated|ram_block1a0_PORTADATAOUT_bus [16] $end
$var wire 1 9$ DFAFBG|inst|altsyncram_component|auto_generated|ram_block1a0_PORTADATAOUT_bus [15] $end
$var wire 1 :$ DFAFBG|inst|altsyncram_component|auto_generated|ram_block1a0_PORTADATAOUT_bus [14] $end
$var wire 1 ;$ DFAFBG|inst|altsyncram_component|auto_generated|ram_block1a0_PORTADATAOUT_bus [13] $end
$var wire 1 <$ DFAFBG|inst|altsyncram_component|auto_generated|ram_block1a0_PORTADATAOUT_bus [12] $end
$var wire 1 =$ DFAFBG|inst|altsyncram_component|auto_generated|ram_block1a0_PORTADATAOUT_bus [11] $end
$var wire 1 >$ DFAFBG|inst|altsyncram_component|auto_generated|ram_block1a0_PORTADATAOUT_bus [10] $end
$var wire 1 ?$ DFAFBG|inst|altsyncram_component|auto_generated|ram_block1a0_PORTADATAOUT_bus [9] $end
$var wire 1 @$ DFAFBG|inst|altsyncram_component|auto_generated|ram_block1a0_PORTADATAOUT_bus [8] $end
$var wire 1 A$ DFAFBG|inst|altsyncram_component|auto_generated|ram_block1a0_PORTADATAOUT_bus [7] $end
$var wire 1 B$ DFAFBG|inst|altsyncram_component|auto_generated|ram_block1a0_PORTADATAOUT_bus [6] $end
$var wire 1 C$ DFAFBG|inst|altsyncram_component|auto_generated|ram_block1a0_PORTADATAOUT_bus [5] $end
$var wire 1 D$ DFAFBG|inst|altsyncram_component|auto_generated|ram_block1a0_PORTADATAOUT_bus [4] $end
$var wire 1 E$ DFAFBG|inst|altsyncram_component|auto_generated|ram_block1a0_PORTADATAOUT_bus [3] $end
$var wire 1 F$ DFAFBG|inst|altsyncram_component|auto_generated|ram_block1a0_PORTADATAOUT_bus [2] $end
$var wire 1 G$ DFAFBG|inst|altsyncram_component|auto_generated|ram_block1a0_PORTADATAOUT_bus [1] $end
$var wire 1 H$ DFAFBG|inst|altsyncram_component|auto_generated|ram_block1a0_PORTADATAOUT_bus [0] $end
$upscope $end
$upscope $end
$enddefinitions $end
#0
$dumpvars
0!
0"
0#
x$
x%
x&
x'
0(
0)
0*
0+
0/
0.
0-
0,
03
02
01
00
04
05
06
07
08
09
1:
0;
0<
0=
0>
0?
0@
1A
0B
0C
0D
0E
0F
0G
0H
0I
0J
0K
0L
0M
0N
0O
0P
0Q
0R
0S
0T
0U
0V
0W
0X
0Y
1Z
1[
1\
1]
0^
1_
x`
1a
1b
1c
0d
0e
0f
0g
0h
xi
xj
xk
xl
0m
0n
0o
0p
0q
1r
0s
0t
0u
0v
0w
0x
0y
0z
0{
0|
0}
0~
1!!
1"!
1#!
0$!
0%!
0&!
0'!
0(!
0)!
0*!
0+!
0,!
0-!
0.!
0/!
00!
01!
02!
03!
04!
05!
06!
07!
18!
09!
0:!
0;!
0<!
0=!
0>!
1?!
0@!
0A!
0B!
0C!
0D!
0E!
0F!
0G!
0H!
1I!
0J!
0K!
0L!
1M!
0N!
0O!
0P!
1Q!
0R!
0S!
0T!
1U!
0V!
0W!
0X!
1Y!
0Z!
0[!
0\!
1]!
0^!
0_!
0`!
1a!
0b!
0c!
0d!
1e!
0f!
0g!
0h!
0i!
0j!
0k!
0l!
0m!
0n!
0o!
0p!
0q!
0r!
1s!
1t!
0u!
0v!
0w!
1x!
0y!
0z!
0{!
1|!
0}!
0~!
0!"
1""
0#"
0$"
0%"
1&"
0'"
0("
0)"
1*"
0+"
0,"
0-"
1."
0/"
00"
01"
12"
03"
04"
05"
16"
07"
08"
09"
0:"
0;"
0<"
0="
0>"
1?"
0@"
0A"
1B"
1C"
xD"
xE"
0F"
0G"
0H"
0I"
0J"
1K"
0L"
0M"
0N"
0O"
0P"
0Q"
xR"
xS"
0T"
0U"
xV"
0W"
0X"
xY"
xZ"
0["
0\"
x]"
0^"
0_"
x`"
xa"
0b"
0c"
xd"
0e"
0f"
xg"
xh"
0i"
0j"
xk"
1l"
1m"
1n"
1o"
1p"
1q"
0r"
1s"
1t"
1u"
1v"
1w"
1x"
1y"
1z"
1{"
1|"
1}"
1~"
0!#
0"#
0##
1$#
1%#
1&#
1'#
1(#
1)#
0*#
0+#
1,#
1-#
0.#
0/#
10#
01#
12#
13#
04#
05#
06#
07#
08#
09#
0:#
0;#
0<#
0=#
0>#
0?#
0@#
0A#
0B#
0C#
0D#
0E#
0F#
0G#
0H#
0I#
0J#
0K#
1L#
0M#
0N#
0O#
0P#
0Q#
0R#
0S#
0T#
0U#
0V#
1W#
1X#
1Y#
1Z#
1[#
1\#
0]#
1^#
1_#
1`#
1a#
1b#
1c#
0d#
0t#
0s#
0r#
0q#
0p#
0o#
0n#
0m#
0l#
0k#
0j#
0i#
0h#
0g#
0f#
0e#
0&$
0%$
0$$
0#$
0"$
0!$
0~#
0}#
0|#
0{#
0z#
0y#
0x#
0w#
0v#
0u#
06$
05$
04$
03$
02$
01$
00$
0/$
0.$
0-$
0,$
0+$
0*$
0)$
0($
0'$
0H$
0G$
0F$
0E$
0D$
0C$
0B$
0A$
0@$
0?$
0>$
0=$
0<$
0;$
0:$
09$
08$
07$
$end
#500
1!
1A!
02#
0,#
0B"
1y!
0x!
1u!
0s!
1q!
1J!
1H!
1E!
1B!
1r!
0C"
0-#
03#
0y!
0u!
0J!
0E!
1v!
1F!
0v!
0F!
#501
xH$
xG$
xF$
xE$
xD$
xC$
xB$
xA$
x@$
x?$
x>$
x=$
x<$
x;$
x:$
x9$
x8$
x7$
xe#
xf#
xg#
xh#
xi#
xj#
xk#
xl#
xm#
xn#
xo#
xp#
xq#
xr#
xs#
xt#
x4#
xr"
xq"
xp"
xo"
xn"
xm"
xl"
x9#
xL#
x0#
x%#
x$#
x!#
x|"
xy"
xv"
xs"
xf"
xe"
x_"
x^"
xX"
xW"
xQ"
xP"
xF"
xM#
x>#
x7#
x/#
xN#
x?#
x=#
x.#
x'#
x&#
x"#
x}"
xz"
xw"
xt"
xT#
x)#
x(#
x##
x~"
x{"
xx"
xu"
xD#
xu
xx
x{
x~
x#!
x(!
x)!
xt
xw
xz
x}
x"!
x&!
x'!
xs
xv
xy
x|
x!!
x$!
x%!
xd
xm
xn
xo
xp
xq
xr
xi"
xb"
x["
xT"
xQ#
xI#
xZ
xV
xR
xN
xJ
xF
xB
xK
xG
x[
xW
xS
xO
xC
xL
xH
x\
xX
xT
xP
xD
xM
xI
x]
xY
xU
xQ
xE
xU#
xJ#
x@#
x8#
x.!
x2!
x-!
x1!
x,!
x0!
x+!
x/!
x0
x,
x1
x-
x2
x.
x3
x/
#1000
1"
0!
0A!
1C!
1D!
12#
1,#
1B"
1y!
1x!
1u!
1s!
0q!
1J!
0H!
1E!
0B!
0r!
1C"
1-#
13#
0y!
0u!
0J!
0E!
1v!
1F!
0v!
0F!
#1500
1!
1A!
02#
0,#
0B"
1y!
0x!
1u!
0s!
1q!
1J!
1H!
1E!
1B!
1r!
0C"
0-#
03#
0y!
0u!
0J!
0E!
1v!
1F!
0v!
0F!
#2000
0"
0!
0A!
0C!
0D!
12#
1,#
1B"
1y!
1x!
1u!
1s!
0q!
1J!
0H!
1E!
0B!
0r!
1C"
1-#
13#
0y!
0u!
0J!
0E!
1v!
1F!
0v!
0F!
#2500
1!
1A!
02#
0,#
0B"
1y!
0x!
1u!
0s!
1q!
1J!
1H!
1E!
1B!
1r!
0C"
0-#
03#
0y!
0u!
0J!
0E!
1v!
1F!
0v!
0F!
#3000
1"
0!
0A!
1C!
1D!
12#
1,#
1B"
1y!
1x!
1u!
1s!
0q!
1J!
0H!
1E!
0B!
0r!
1C"
1-#
13#
0y!
0u!
0J!
0E!
1v!
1F!
0v!
0F!
#3500
1!
1A!
02#
0,#
0B"
1y!
0x!
1u!
0s!
1q!
1J!
1H!
1E!
1B!
1r!
0C"
0-#
03#
0y!
0u!
0J!
0E!
1v!
1F!
0v!
0F!
#4000
0"
0!
0A!
0C!
0D!
12#
1,#
1B"
1y!
1x!
1u!
1s!
0q!
1J!
0H!
1E!
0B!
0r!
1C"
1-#
13#
0y!
0u!
0J!
0E!
1v!
1F!
0v!
0F!
#4500
1!
1A!
02#
0,#
0B"
1y!
0x!
1u!
0s!
1q!
1J!
1H!
1E!
1B!
1r!
0C"
0-#
03#
0y!
0u!
0J!
0E!
1v!
1F!
0v!
0F!
#5000
1"
0!
0A!
1C!
1D!
12#
1,#
1B"
1y!
1x!
1u!
1s!
0q!
1J!
0H!
1E!
0B!
0r!
1C"
1-#
13#
0y!
0u!
0J!
0E!
1v!
1F!
0v!
0F!
#5500
1!
1A!
02#
0,#
0B"
1y!
0x!
1u!
0s!
1q!
1J!
1H!
1E!
1B!
1r!
0C"
0-#
03#
0y!
0u!
0J!
0E!
1v!
1F!
0v!
0F!
